{
    "content": [
      {
        "id": "680ea0b060b0517f6f6ef33b",
        "name": "Oversized Fit Printed Mesh T-Shirt",
        "brand": "H&M",
        "description": "Oversized, relaxed-fit t-shirt in soft cotton jersey with a printed mesh design.",
        "price": 295.00,
        "discountPrice": 550.00,
        "stockQuantity": 15,
        "colors": [
          "navy",
          "blue",
          "lightblue"
        ],
        "sizes": [
          "S",
          "M",
          "L",
          "XL"
        ],
        "category": "men",
        "tags": [
          "men",
          "t-shirts",
          "casual"
        ],
        "imageUrl": "/api/placeholder/300/300",
        "featured": true,
        "reviewCount": 136,
        "averageRating": 4.9
      },
      {
        "id": "680ea12160b0517f6f6ef33c",
        "name": "Printed Sweatshirt",
        "brand": "H&M",
        "description": "Relaxed-fit sweatshirt in soft cotton blend with a printed design on the front.",
        "price": 314.00,
        "discountPrice": null,
        "stockQuantity": 20,
        "colors": [
          "gray",
          "black"
        ],
        "sizes": [
          "S",
          "M",
          "L",
          "XL"
        ],
        "category": "men",
        "tags": [
          "men",
          "sweatshirts",
          "casual"
        ],
        "imageUrl": "/api/placeholder/300/300",
        "featured": false,
        "reviewCount": 178,
        "averageRating": 4.8
      },
      {
        "id": "680e9ff860b0517f6f6ef339",
        "name": "Regular Fit Linen-blend T-shirt",
        "brand": "H&M",
        "description": "Regular-fit t-shirt in a linen and cotton blend with a round, rib-trimmed neckline.",
        "price": 169.00,
        "discountPrice": null,
        "stockQuantity": 13,
        "colors": [
          "black",
          "white"
        ],
        "sizes": [
          "S",
          "M",
          "L",
          "XL"
        ],
        "category": "men",
        "tags": [
          "men",
          "t-shirts",
          "casual"
        ],
        "imageUrl": "/api/placeholder/300/300",
        "featured": false,
        "reviewCount": 236,
        "averageRating": 4.8
      },
      {
        "id": "680e9f217175be41263516bb",
        "name": "Loose Fit Sweatshirt",
        "brand": "H&M",
        "description": "Loose-fit sweatshirt in cotton-blend fabric with ribbed cuffs and hem.",
        "price": 187.00,
        "discountPrice": null,
        "stockQuantity": 7,
        "colors": [
          "lightblue",
          "gray"
        ],
        "sizes": [
          "S",
          "M",
          "L",
          "XL"
        ],
        "category": "men",
        "tags": [
          "men",
          "sweatshirts",
          "casual"
        ],
        "imageUrl": "/api/placeholder/300/300",
        "featured": false,
        "reviewCount": 59,
        "averageRating": 4.7
      },
      {
        "id": "680ea00160b0517f6f6ef33a",
        "name": "Loose Fit Hoodie",
        "brand": "H&M",
        "description": "Loose-fit hoodie in soft cotton-blend fabric with kangaroo pocket and drawstring hood.",
        "price": 249.00,
        "discountPrice": null,
        "stockQuantity": 15,
        "colors": [
          "beige",
          "black"
        ],
        "sizes": [
          "S",
          "M",
          "L",
          "XL"
        ],
        "category": "men",
        "tags": [
          "men",
          "hoodies",
          "casual"
        ],
        "imageUrl": "/api/placeholder/300/300",
        "featured": false,
        "reviewCount": 29,
        "averageRating": 5.0
      },
      {
        "id": "680ea0b060b0517f6f6ef33c",
        "name": "DryMove™ Track Jacket",
        "brand": "H&M",
        "description": "Sports jacket in fast-drying, functional fabric designed to help keep you dry during activity.",
        "price": 329.00,
        "discountPrice": null,
        "stockQuantity": 22,
        "colors": [
          "navy",
          "gray"
        ],
        "sizes": [
          "S",
          "M",
          "L",
          "XL"
        ],
        "category": "men",
        "tags": [
          "men",
          "sports",
          "jackets"
        ],
        "imageUrl": "/api/placeholder/300/300",
        "featured": true,
        "reviewCount": 163,
        "averageRating": 4.8
      },
      {
        "id": "680ea0b060b0517f6f6ef33d",
        "name": "11FiftyNine Graphic T-Shirt",
        "brand": "Reebok",
        "description": "Limited edition graphic t-shirt with bold 11FiftyNine print design on premium cotton.",
        "price": 275.00,
        "discountPrice": null,
        "stockQuantity": 18,
        "colors": [
          "red",
          "white",
          "black"
        ],
        "sizes": [
          "S",
          "M",
          "L",
          "XL"
        ],
        "category": "men",
        "tags": [
          "men",
          "t-shirts",
          "casual"
        ],
        "imageUrl": "/api/placeholder/300/300",
        "featured": true,
        "reviewCount": 42,
        "averageRating": 4.8
      },
      {
        "id": "680ea0b060b0517f6f6ef33e",
        "name": "Miami Print T-shirt",
        "brand": "H&M",
        "description": "Regular-fit t-shirt in soft cotton jersey with Miami-inspired graphic print.",
        "price": 199.00,
        "discountPrice": null,
        "stockQuantity": 25,
        "colors": [
          "blue",
          "white"
        ],
        "sizes": [
          "S",
          "M",
          "L",
          "XL"
        ],
        "category": "men",
        "tags": [
          "men",
          "t-shirts",
          "casual"
        ],
        "imageUrl": "/api/placeholder/300/300",
        "featured": false,
        "reviewCount": 53,
        "averageRating": 4.7
      }
    ],
    "page": {
      "size": 8,
      "number": 0,
      "totalElements": 46024,
      "totalPages": 5753
    }
  }